…
### Query by a specific tag

Let’s look for who scans for DNS endpoints

``` r
(dns <- gn_query_by_tag("DNS_SCANNER_HIGH"))
```

    ## # A tibble: 500 x 16
    ##                ip             name               first_seen             last_updated confidence intention category
    ##  *          <chr>            <chr>                    <chr>                    <chr>      <chr>     <chr>    <chr>
    ##  1  185.107.94.80 DNS_SCANNER_HIGH 2017-11-08T21:38:51.116Z 2017-11-13T12:35:30.422Z       high           activity
    ##  2    74.82.47.10 DNS_SCANNER_HIGH  2017-11-01T01:58:10.19Z 2017-11-13T12:35:30.422Z       high           activity
    ##  3 212.83.152.146 DNS_SCANNER_HIGH 2017-11-12T21:52:24.924Z 2017-11-13T12:35:28.052Z       high           activity
    ##  4    71.6.216.61 DNS_SCANNER_HIGH 2017-11-08T21:38:29.665Z 2017-11-13T12:35:28.052Z       high           activity
    ##  5    71.6.216.40 DNS_SCANNER_HIGH 2017-11-08T21:38:22.214Z 2017-11-13T12:35:28.052Z       high           activity
    ##  6 185.165.29.199 DNS_SCANNER_HIGH 2017-11-13T12:20:59.871Z 2017-11-13T12:35:28.052Z       high           activity
    ##  7  139.162.65.55 DNS_SCANNER_HIGH 2017-10-30T19:13:29.656Z 2017-11-13T12:35:28.052Z       high           activity
    ##  8    71.6.216.37 DNS_SCANNER_HIGH 2017-11-08T21:38:21.717Z 2017-11-13T12:35:28.052Z       high           activity
    ##  9  93.174.95.106 DNS_SCANNER_HIGH 2017-11-09T20:59:10.993Z 2017-11-13T12:35:28.052Z       high           activity
    ## 10  52.73.169.169 DNS_SCANNER_HIGH 2017-11-13T12:20:59.871Z 2017-11-13T12:35:28.052Z       high           activity
    ## # ... with 490 more rows, and 9 more variables: metadata.org <chr>, metadata.rdns <chr>, metadata.rdns_parent <chr>,
    ## #   metadata.datacenter <chr>, metadata.asn <chr>, metadata.os <chr>, metadata.link <chr>, metadata.tor <lgl>,
    ## #   tag <chr>
…
### Query by IP

We’ll use fie first 5 IP addresses found in the previous query results.

``` r
(what_else <- map_df(dns$ip[1:5], gn_query_by_ip))
```

    ## # A tibble: 154 x 15
    ##                      name               first_seen             last_updated confidence intention category
    ##                     <chr>                    <chr>                    <chr>      <chr>     <chr>    <chr>
    ##  1       WEB_SCANNER_HIGH 2017-11-12T12:11:28.644Z 2017-11-13T14:22:20.963Z       high           activity
    ##  2       DNS_SCANNER_HIGH 2017-11-08T21:38:51.116Z 2017-11-13T12:35:30.422Z       high           activity
    ##  3        DNS_SCANNER_LOW 2017-10-08T12:46:39.233Z 2017-10-11T11:48:00.053Z        low           activity
    ##  4 SSDP_UPNP_SCANNER_HIGH 2017-09-27T19:11:41.323Z 2017-10-01T15:54:16.701Z       high           activity
    ##  5      SNMP_SCANNER_HIGH 2017-09-29T09:32:22.024Z 2017-10-01T10:28:45.062Z       high           activity
    ##  6       NTP_SCANNER_HIGH 2017-09-29T08:11:55.385Z 2017-10-01T09:47:53.604Z       high           activity
    ##  7      TFTP_SCANNER_HIGH 2017-09-29T06:59:06.788Z 2017-10-01T07:25:08.617Z       high           activity
    ##  8       DNS_SCANNER_HIGH 2017-09-27T12:44:30.076Z 2017-10-01T06:42:03.647Z       high           activity
    ##  9       WEB_SCANNER_HIGH 2017-09-29T02:20:36.803Z 2017-10-01T01:30:43.166Z       high           activity
    ## 10       WEB_SCANNER_HIGH   2017-11-09T12:02:13.6Z 2017-11-13T14:22:50.273Z       high           activity
    ## # ... with 144 more rows, and 9 more variables: metadata.org <chr>, metadata.rdns <chr>, metadata.rdns_parent <chr>,
    ## #   metadata.datacenter <chr>, metadata.asn <chr>, metadata.os <chr>, metadata.link <chr>, metadata.tor <lgl>, ip <chr>
…
